[
{
  "fields": {
    "district": "Vila Aricanduva",
    "cpf": "22714744272",
    "created": "2015-10-17T02:34:53.915Z",
    "address": "Av Aricanduva, 5555",
    "email": "natashahill@example.com",
    "phone": "(28) 64328-275",
    "cep": "03527-000",
    "uf": "SP",
    "city": "S\u00e3o Paulo",
    "name": "Natasha Hill",
    "modified": "2015-10-17T02:37:54.539Z"
  },
  "pk": 1,
  "model": "subscriptions.subscription"
},
{
  "fields": {
    "district": "Instituto de Previd\u00eancia",
    "cpf": "96354037014",
    "created": "2015-10-17T02:35:42.736Z",
    "address": "Av Eliseu de Almeida, 346",
    "email": "valeriepaxton@example.com",
    "phone": "(18) 88347-149",
    "cep": "05533-000",
    "uf": "SP",
    "city": "S\u00e3o Paulo",
    "name": "Valerie Paxton",
    "modified": "2015-10-17T02:38:06.573Z"
  },
  "pk": 2,
  "model": "subscriptions.subscription"
},
{
  "fields": {
    "district": "Sa\u00fade",
    "cpf": "34583274992",
    "created": "2015-10-17T02:35:56.692Z",
    "address": "Av Prof Abra\u00e3o de Morais, 2250",
    "email": "chrispitre@example.com",
    "phone": "(22) 92577-610",
    "cep": "04123-001",
    "uf": "SP",
    "city": "S\u00e3o Paulo",
    "name": "Chris Pitre",
    "modified": "2015-10-17T02:37:28.420Z"
  },
  "pk": 3,
  "model": "subscriptions.subscription"
},
{
  "fields": {
    "district": "Imirim",
    "cpf": "49734494845",
    "created": "2015-10-17T02:36:12.328Z",
    "address": "Av Eng Caetano \u00c1lvares, 3891",
    "email": "judithwoock@example.com",
    "phone": "84 1260-7352",
    "cep": "02413-000",
    "uf": "SP",
    "city": "S\u00e3o Paulo",
    "name": "Judith Woock",
    "modified": "2015-10-17T02:36:12.328Z"
  },
  "pk": 4,
  "model": "subscriptions.subscription"
},
{
  "fields": {
    "district": "Vila Leopoldina",
    "cpf": "06198038046",
    "created": "2015-10-17T02:36:30.345Z",
    "address": "Avenida Doutor Gast\u00e3o Vidigal, 300",
    "email": "maudeharbaugh@example.com",
    "phone": "47 9548-0033",
    "cep": "05314-000",
    "uf": "SP",
    "city": "S\u00e3o Paulo",
    "name": "Maude Harbaugh",
    "modified": "2015-10-17T02:36:30.345Z"
  },
  "pk": 5,
  "model": "subscriptions.subscription"
},
{
  "fields": {
    "subscription": 1,
    "domain": "www.americanas.com.br"
  },
  "pk": 2,
  "model": "subscriptions.domain"
},
{
  "fields": {
    "subscription": 1,
    "domain": "www.shoptime.com.br"
  },
  "pk": 3,
  "model": "subscriptions.domain"
},
{
  "fields": {
    "subscription": 2,
    "domain": "www.shoptime.com.br"
  },
  "pk": 5,
  "model": "subscriptions.domain"
},
{
  "fields": {
    "subscription": 3,
    "domain": "www.soubarato.com.br"
  },
  "pk": 8,
  "model": "subscriptions.domain"
},
{
  "fields": {
    "subscription": 3,
    "domain": "www.submarino.com.br"
  },
  "pk": 9,
  "model": "subscriptions.domain"
},
{
  "fields": {
    "subscription": 4,
    "domain": "www.submarino.com.br"
  },
  "pk": 10,
  "model": "subscriptions.domain"
},
{
  "fields": {
    "subscription": 4,
    "domain": "www.siteblindado.com"
  },
  "pk": 11,
  "model": "subscriptions.domain"
},
{
  "fields": {
    "subscription": 4,
    "domain": "www.b2wdigital.com"
  },
  "pk": 12,
  "model": "subscriptions.domain"
},
{
  "fields": {
    "subscription": 5,
    "domain": "www.americanas.com.br"
  },
  "pk": 13,
  "model": "subscriptions.domain"
},
{
  "fields": {
    "subscription": 5,
    "domain": "www.soubarato.com.br"
  },
  "pk": 14,
  "model": "subscriptions.domain"
},
{
  "fields": {
    "subscription": 5,
    "domain": "www.siteblindado.com"
  },
  "pk": 15,
  "model": "subscriptions.domain"
}
]
